{
	"editor": {
		"allAngles": false,
		"entityTextureMode": false
	},
	"textureWidth": 16,
	"textureHeight": 16,
	"textureSizes": {
	},
	"textures": {
		"moss_hanging_end2": "lumberjacks:block/plant/moss_hanging_end2",
		"moss_hanging_end": "lumberjacks:block/plant/moss_hanging_end"
	},
	"elements": [
		{
			"name": "Moss",
			"from": [ 1.0, 3.0, 3.0 ],
			"to": [ 15.0, 16.0, 4.0 ],
			"shade": false,
			"climateColorMap": "climatePlantTint",
			"rotationOrigin": [ 1.0, 3.0, 3.0 ],
			"faces": {
				"north": { "texture": "#moss_hanging_end2", "uv": [ 0.0, 3.0, 14.0, 16.0 ] },
				"east": { "texture": "#null", "uv": [ 0.0, 0.0, 1.0, 13.0 ], "enabled": false },
				"south": { "texture": "#null", "uv": [ 0.0, 0.0, 14.0, 13.0 ], "enabled": false },
				"west": { "texture": "#null", "uv": [ 0.0, 0.0, 1.0, 13.0 ], "enabled": false },
				"up": { "texture": "#null", "uv": [ 0.0, 0.0, 14.0, 1.0 ], "enabled": false },
				"down": { "texture": "#null", "uv": [ 0.0, 0.0, 14.0, 1.0 ], "enabled": false }
			}
		},
		{
			"name": "Moss2",
			"from": [ 6.0, 2.0, 0.0 ],
			"to": [ 7.0, 16.0, 6.0 ],
			"shade": false,
			"climateColorMap": "climatePlantTint",
			"seasonColorMap": "climatePlantTint",
			"rotationOrigin": [ 6.0, 2.0, 0.0 ],
			"faces": {
				"north": { "texture": "#null", "uv": [ 0.0, 0.0, 1.0, 14.0 ], "enabled": false },
				"east": { "texture": "#moss_hanging_end", "uv": [ 0.0, 0.0, 6.0, 14.0 ] },
				"south": { "texture": "#null", "uv": [ 0.0, 0.0, 1.0, 14.0 ], "enabled": false },
				"west": { "texture": "#null", "uv": [ 0.0, 0.0, 6.0, 14.0 ], "enabled": false },
				"up": { "texture": "#null", "uv": [ 0.0, 0.0, 1.0, 6.0 ], "enabled": false },
				"down": { "texture": "#null", "uv": [ 0.0, 0.0, 1.0, 6.0 ], "enabled": false }
			}
		},
		{
			"name": "Moss3",
			"from": [ 9.0, 10.0, 1.0 ],
			"to": [ 10.0, 16.0, 6.0 ],
			"shade": false,
			"climateColorMap": "climatePlantTint",
			"seasonColorMap": "climatePlantTint",
			"rotationOrigin": [ 9.0, 10.0, 1.0 ],
			"faces": {
				"north": { "texture": "#null", "uv": [ 0.0, 0.0, 1.0, 6.0 ], "enabled": false },
				"east": { "texture": "#moss_hanging_end", "uv": [ 2.5, 9.0, 7.5, 15.0 ] },
				"south": { "texture": "#null", "uv": [ 0.0, 0.0, 1.0, 6.0 ], "enabled": false },
				"west": { "texture": "#null", "uv": [ 0.0, 0.0, 5.0, 6.0 ], "enabled": false },
				"up": { "texture": "#null", "uv": [ 0.0, 0.0, 1.0, 5.0 ], "enabled": false },
				"down": { "texture": "#null", "uv": [ 0.0, 0.0, 1.0, 5.0 ], "enabled": false }
			}
		}
	]}
